# Blender v2.63 (sub 0) OBJ File: ''
# www.blender.org
o Mesh_Mesh_cube
v -1.00000 -1.000000 1.000000
v 1.000000 -1.000000 -1.000000
v 1.000000 -1.000000 1.000000
v -1.000000 -1.00000 -1.00000
v -1.000000 1.000000 -1.00000
v -1.000000 1.000000 1.000000
v 1.000000 1.000000 -1.0000
v 1.000000 1.000000 1.000000
vt 0.000000 0.000000
vt 1.000000 1.000000
vt 1.000000 0.000000
vt 0.000000 1.000000
vn -0.000000 -1.000000 -0.000000
vn -1.000000 0.000000 0.000000
vn 0.000000 0.000001 -1.000000
vn 1.000000 0.000000 -0.000000
vn 0.000000 0.000000 1.000000
vn 0.000000 1.000000 -0.000000
s off
f 1/1/1 2/2/1 3/3/1
f 1/1/1 4/4/1 2/2/1
f 1/1/2 5/2/2 4/3/2
f 1/1/2 6/4/2 5/2/2
f 4/1/3 7/2/3 2/3/3
f 4/1/3 5/4/3 7/2/3
f 3/1/4 2/4/4 7/2/4
f 3/1/4 7/2/4 8/3/4
f 1/1/5 3/3/5 8/2/5
f 1/1/5 8/2/5 6/4/5
f 6/1/6 8/3/6 7/2/6
f 6/1/6 7/2/6 5/4/6